Project Vivado HLS/solution1/sim/report/verilog/MATRIX_MUL.log
INFO: [COSIM-47] Using XSIM for RTL simulation.
INFO: [COSIM-14] Instrumenting C test bench ...
   Build using "D:/XilinxFPGA/Vivado/2019.2/tps/win64/msys64/mingw64/bin/g++"
   Compiling tb_MATRIX_MUL.cpp_pre.cpp.tb.cpp
   Compiling MATRIX_MUL.cpp_pre.cpp.tb.cpp
   Compiling apatb_MATRIX_MUL.cpp
   Generating cosim.tv.exe
INFO: [COSIM-302] Starting C TB testing ... 
INFO: [COSIM-333] Generating C post check test bench ...
INFO: [COSIM-12] Generating RTL test bench ...
INFO: [COSIM-1] *** C/RTL co-simulation file generation completed. ***
INFO: [COSIM-323] Starting verilog simulation. 
INFO: [COSIM-15] Starting XSIM ...
INFO: [COSIM-316] Starting C post checking ...
Matrix A
0 21 153 228 247 48 131 101 67 190 22 143 149 207 151 130 224 254 185 247 76 109 230 167 230 246 42 219 232 75 239 106 78 131 101 202 176 139 151 23 156 110 153 216 126 197 18 49 57 199 21 46 157 148 189 80 112 105 232 254 147 41 178 85 
116 19 32 44 113 9 129 119 148 172 23 17 213 99 48 42 245 253 29 222 159 172 157 150 38 65 204 151 229 69 50 69 101 24 165 161 32 38 22 242 138 10 140 188 124 119 1 56 52 146 29 154 43 178 62 170 10 44 93 192 100 211 144 192 
177 81 212 136 199 37 149 202 243 233 200 203 146 2 39 130 194 75 153 143 216 129 233 79 203 251 16 246 56 114 157 77 234 14 60 205 111 251 157 13 215 61 141 26 242 136 45 133 213 84 112 81 181 250 52 188 92 244 8 12 225 146 251 15 
17 207 30 250 78 57 209 104 220 158 251 193 48 234 170 9 132 212 188 231 190 45 81 145 44 84 170 101 64 118 99 46 139 65 196 156 209 50 111 36 85 171 232 205 77 39 63 120 76 65 66 254 76 178 233 216 122 17 26 49 180 2 62 112 
125 99 4 34 76 63 163 118 215 178 241 52 45 46 245 100 187 36 204 183 54 121 244 92 149 0 246 248 168 62 103 167 188 240 107 152 235 231 29 84 91 77 121 172 32 115 140 104 102 158 53 190 5 12 96 173 245 4 110 136 73 240 150 96 
149 126 82 172 43 200 140 228 232 186 190 82 210 37 188 60 12 54 188 55 143 148 42 192 45 202 109 34 50 97 240 95 156 77 151 165 23 210 121 200 240 134 100 53 94 162 27 163 143 189 171 174 99 102 186 1 7 67 31 221 92 164 57 159 
95 160 79 150 247 247 46 157 10 119 88 158 23 40 38 36 106 221 235 24 184 116 110 83 43 131 162 34 109 17 199 7 149 251 221 245 92 0 82 97 243 103 105 51 10 91 212 188 70 160 216 91 133 29 38 169 37 218 68 44 14 46 222 162 
116 122 175 110 28 193 64 7 180 21 103 155 181 166 254 218 69 70 27 166 49 18 46 36 63 32 32 242 188 239 33 235 116 29 206 187 149 189 193 127 58 176 64 186 84 232 237 226 3 206 219 221 122 107 234 123 240 197 217 55 230 3 80 229 
199 151 155 21 176 42 115 74 69 252 175 236 123 214 158 212 155 47 185 168 79 56 182 99 190 179 69 13 91 220 92 172 103 171 5 2 140 11 80 169 111 240 60 78 158 243 200 27 5 238 98 95 161 38 196 62 172 100 8 40 121 98 41 249 
184 211 214 81 16 47 86 120 151 215 74 88 29 170 96 111 61 100 246 195 93 203 159 240 20 132 170 246 46 49 232 84 89 138 194 230 77 51 147 122 180 205 98 210 6 74 219 242 72 35 74 183 77 196 250 56 42 41 95 28 57 227 5 166 
102 235 202 237 83 124 146 145 118 37 84 189 81 228 82 98 219 9 141 64 232 212 169 195 251 120 89 236 239 103 231 228 119 155 12 76 13 105 12 182 176 155 225 122 2 77 199 41 229 117 251 71 223 221 58 112 164 186 37 211 130 6 35 52 
46 146 225 41 149 103 111 60 62 124 81 163 236 184 16 136 8 23 27 161 158 167 178 20 151 39 146 158 74 137 12 59 108 110 68 75 177 238 156 161 20 135 30 179 222 126 212 235 39 188 122 246 38 212 227 30 206 141 147 168 160 231 56 196 
152 250 201 128 35 112 208 224 181 9 122 14 120 142 216 51 129 139 69 168 176 50 199 77 246 132 13 183 132 97 127 157 206 73 26 191 140 131 54 147 90 248 211 246 228 185 64 7 45 197 86 182 87 122 10 67 87 67 220 162 86 240 146 138 
88 164 216 99 174 53 82 242 140 233 16 89 140 70 175 10 254 166 187 176 117 246 158 174 109 221 112 216 202 197 255 14 188 26 189 104 205 140 18 217 196 11 222 247 0 201 150 137 153 80 160 96 171 225 11 248 46 188 103 0 183 116 3 240 
177 103 191 88 26 62 18 195 194 183 58 132 14 248 130 221 19 61 166 192 1 6 37 245 1 166 119 150 40 71 199 112 208 221 246 196 188 69 210 15 89 55 4 181 128 75 50 115 146 33 84 217 75 64 75 74 163 40 204 3 202 186 139 96 
54 27 146 152 115 137 139 171 185 119 200 89 73 160 142 198 252 70 16 223 3 199 126 137 239 243 19 120 253 157 245 225 163 122 11 15 183 46 195 51 40 247 174 192 20 206 154 70 187 192 6 173 199 26 12 92 137 18 72 248 159 128 20 177 
141 60 188 108 206 45 181 178 16 44 47 21 121 222 211 43 173 36 186 152 227 209 112 89 41 160 59 210 37 127 42 43 64 21 141 43 34 39 28 215 55 68 61 113 164 178 107 208 13 35 251 63 149 21 205 242 252 47 112 123 21 72 73 169 
86 227 246 88 242 90 224 1 202 61 137 231 32 54 187 19 157 2 220 210 238 182 102 160 200 152 137 121 13 134 240 97 151 19 38 79 43 237 129 80 223 190 49 161 60 3 239 46 39 61 164 226 48 100 11 212 10 252 48 1 174 86 189 97 
86 166 42 29 173 49 255 84 95 195 179 194 80 161 140 255 224 212 223 110 137 8 19 145 255 15 8 251 248 113 1 106 27 23 79 154 225 133 13 130 129 17 48 120 237 51 130 29 182 221 13 120 32 238 74 21 222 79 82 177 118 182 214 106 
211 139 158 134 237 135 205 204 75 1 158 7 179 61 219 235 132 105 202 99 8 135 236 191 38 225 131 247 85 151 128 68 63 153 37 197 228 56 71 118 130 133 242 246 33 43 233 0 153 49 33 151 82 177 118 205 241 185 241 173 123 126 244 141 
180 76 7 212 5 195 45 64 61 225 115 49 48 250 173 30 71 125 167 50 157 193 250 209 174 53 228 131 197 189 8 84 108 111 150 167 210 231 19 103 165 122 17 210 55 9 108 11 61 50 20 204 226 1 255 179 164 115 222 255 164 26 103 155 
34 60 127 91 105 145 214 140 116 126 85 26 242 27 89 88 197 210 197 226 60 181 110 46 177 217 151 61 225 227 6 196 131 243 77 131 43 108 1 67 208 88 129 115 150 42 218 25 137 102 28 77 197 232 201 8 247 43 253 82 28 21 91 43 
164 237 137 94 184 75 101 142 173 140 94 42 109 172 71 17 208 129 3 247 104 209 116 112 191 61 3 140 196 156 199 191 72 145 224 81 17 42 13 163 173 56 218 53 157 68 75 194 108 68 125 156 22 118 149 224 208 247 30 181 125 8 147 192 
50 230 211 12 214 231 35 158 9 193 211 199 253 130 87 213 102 191 157 197 94 225 237 226 131 207 130 251 217 45 169 120 41 198 49 236 152 159 247 105 81 133 237 141 119 201 64 35 30 114 255 25 225 247 1 14 172 44 162 33 142 164 82 95 
163 17 239 66 37 50 42 202 5 16 43 141 111 234 209 237 234 48 51 213 20 70 203 90 199 97 246 74 27 225 28 231 105 139 134 244 68 117 134 184 240 137 172 87 192 250 55 84 20 10 162 69 147 1 42 52 177 86 219 2 142 217 13 91 
242 205 13 57 91 235 151 82 165 222 191 2 174 103 1 162 98 19 130 82 220 16 216 94 195 77 80 253 25 180 204 39 133 147 157 194 212 236 211 118 219 16 118 92 183 171 101 52 127 123 168 83 115 244 45 12 80 240 105 195 26 151 198 253 
62 190 90 99 222 38 153 159 13 238 16 179 130 148 19 251 99 19 101 4 18 250 243 218 146 223 104 25 40 175 11 193 136 89 46 254 92 81 223 187 1 44 57 222 45 106 117 221 68 117 206 9 55 74 62 192 191 93 8 148 144 205 188 254 
103 94 66 40 201 239 238 68 43 65 21 85 4 172 160 14 212 156 22 235 61 246 117 222 107 45 246 205 242 236 191 250 209 107 172 88 139 103 255 29 244 241 23 215 192 194 247 158 87 131 232 156 153 112 20 65 123 236 167 208 77 68 191 98 
51 96 89 249 223 224 186 82 141 37 112 118 64 151 2 217 37 107 116 217 140 187 59 140 232 74 130 39 32 37 84 65 163 211 40 5 176 31 208 49 222 76 117 1 31 160 111 79 255 70 3 90 216 158 178 75 146 17 248 124 85 217 57 28 
237 199 45 40 159 161 102 37 70 184 92 58 223 74 201 106 16 56 144 236 232 137 53 130 216 168 24 212 187 100 200 176 113 113 122 133 189 188 15 101 149 117 68 106 167 114 10 25 22 147 137 101 106 198 171 185 118 169 24 245 156 251 216 199 
27 66 18 159 76 127 243 188 84 80 176 39 243 88 66 244 194 81 72 186 20 174 193 61 53 148 60 204 233 129 137 202 18 87 248 142 21 213 254 110 175 238 149 49 150 199 2 8 243 41 10 150 147 0 18 191 102 110 210 127 233 158 64 226 
230 253 52 62 240 10 34 87 158 17 7 142 213 66 209 2 232 212 102 155 214 48 59 229 89 246 93 143 108 103 248 109 187 118 157 97 60 236 124 137 73 129 215 136 104 99 109 88 2 121 8 39 185 242 32 214 110 163 103 109 181 249 60 0 
156 68 50 30 128 224 197 83 119 78 80 149 116 252 237 28 249 124 203 87 34 211 79 26 209 127 36 117 211 111 91 12 213 65 190 111 189 14 253 89 43 214 145 255 230 93 138 195 156 43 174 135 54 2 184 72 88 212 221 115 40 170 235 35 
245 146 222 248 68 215 19 141 133 205 211 202 7 177 63 211 245 77 107 251 231 182 189 137 28 66 23 248 182 243 19 245 70 205 164 32 82 95 177 105 224 132 171 226 87 182 42 60 94 93 215 202 40 82 56 87 216 250 146 44 155 77 50 133 
240 36 160 97 38 62 129 169 168 217 6 20 138 2 96 10 21 202 115 93 8 60 5 178 127 237 81 209 26 63 250 239 89 76 60 201 197 255 170 139 153 24 88 67 46 38 86 145 141 221 43 118 187 207 227 117 234 129 238 30 211 133 69 154 
92 168 232 206 169 140 84 209 24 40 182 202 53 78 156 191 184 3 255 175 17 177 123 240 139 102 24 0 142 142 244 135 111 128 227 94 28 119 194 152 241 171 117 190 7 217 147 235 241 188 115 145 8 116 143 147 235 37 118 227 83 43 238 132 
135 178 148 24 194 242 135 185 127 159 105 83 122 215 116 0 86 204 221 159 61 224 122 234 96 232 25 73 116 81 61 183 184 35 46 154 253 62 47 137 36 243 230 190 51 47 121 168 111 99 209 95 144 224 128 15 126 214 84 178 218 47 142 201 
141 205 47 200 213 242 81 148 137 148 8 8 49 94 85 240 140 125 35 251 158 196 64 119 221 13 146 97 69 8 192 49 245 151 203 39 38 37 80 58 240 240 122 133 109 11 108 83 63 175 95 85 167 100 61 241 68 253 222 230 67 170 60 113 
184 116 235 85 169 226 145 68 102 238 53 123 21 187 122 151 167 87 245 33 239 210 42 234 207 227 38 71 6 147 40 167 25 217 26 154 197 11 134 174 91 239 71 44 247 41 180 106 147 204 128 57 181 246 203 32 96 223 223 27 76 121 209 236 
209 152 94 144 188 187 49 4 11 116 40 58 135 86 68 55 153 29 60 81 74 30 240 70 212 170 60 208 208 194 35 116 136 24 233 218 85 15 143 126 196 188 165 59 47 182 22 210 110 202 67 66 150 107 209 24 5 167 137 243 119 138 96 221 
131 144 255 149 4 164 242 69 129 196 152 140 173 137 79 97 168 62 132 142 152 147 113 11 187 107 155 18 99 84 209 42 138 193 221 9 175 125 180 32 241 172 12 82 8 197 215 218 150 58 8 203 81 172 7 51 80 231 203 159 48 159 163 189 
135 17 48 194 73 93 58 206 144 196 58 234 203 5 114 86 224 90 4 72 167 66 165 143 208 195 84 173 47 232 13 192 210 214 95 147 109 203 119 133 178 95 245 64 20 229 235 221 243 22 149 15 193 186 236 83 40 236 120 148 2 116 191 189 
7 207 218 57 85 13 129 142 194 179 107 83 190 119 3 223 231 16 70 178 210 5 193 96 242 35 63 181 12 0 239 185 192 15 96 64 100 163 45 254 234 99 46 56 7 65 30 138 196 189 137 91 116 9 127 205 224 185 91 117 9 62 89 30 
56 232 163 11 131 41 220 105 20 197 98 183 24 27 122 217 161 98 67 219 220 224 241 27 64 90 59 197 108 41 121 192 110 191 208 46 232 101 126 146 13 98 170 99 153 250 74 87 76 153 36 19 28 157 59 226 16 207 159 5 208 159 152 81 
156 151 7 172 19 72 11 241 123 4 97 80 149 65 188 93 88 124 4 231 101 63 87 255 80 43 96 207 114 140 117 46 253 154 241 193 46 223 10 4 94 203 99 191 146 71 13 227 229 25 40 40 55 243 249 64 217 133 0 195 67 53 119 13 
209 40 29 208 187 65 168 124 190 105 178 114 187 251 61 56 107 238 180 165 192 31 172 214 11 87 229 105 75 51 114 46 154 131 164 91 188 160 65 184 77 41 57 160 44 6 88 212 182 241 95 41 147 123 88 136 65 103 249 167 232 22 148 92 
7 182 55 5 143 12 111 246 52 235 107 229 238 79 69 237 89 195 170 24 191 109 37 230 223 97 237 67 182 200 10 154 60 86 7 14 173 233 153 170 167 60 86 179 246 25 237 8 40 90 66 138 6 146 56 115 184 164 53 211 240 77 52 17 
83 173 5 209 86 46 168 35 220 77 225 213 236 200 63 13 136 150 148 160 155 207 65 255 144 92 71 133 246 34 151 37 135 240 176 12 189 8 111 249 12 131 0 172 139 59 188 248 251 6 209 56 177 180 223 228 142 248 232 46 204 39 73 53 
216 7 207 61 112 141 143 251 188 124 216 194 196 249 61 210 93 72 69 23 114 167 46 255 59 147 144 227 222 77 55 251 73 137 62 82 89 200 78 223 234 92 33 39 115 220 158 80 18 185 153 47 71 40 40 182 176 204 254 48 99 245 163 147 
116 49 97 212 56 218 170 232 55 1 173 43 250 230 80 83 61 86 93 15 118 157 146 157 156 133 80 253 116 170 153 165 184 99 220 34 240 185 138 10 127 145 36 2 116 6 26 196 162 191 55 82 180 109 229 201 255 70 219 91 111 200 207 162 
154 177 15 154 153 77 16 146 42 174 113 213 244 47 24 77 236 237 171 193 78 212 163 203 2 62 129 184 155 176 92 50 37 151 40 172 168 50 122 97 54 114 158 201 134 252 26 208 88 138 0 162 222 210 237 116 111 94 87 190 115 253 161 106 
146 140 174 29 124 4 214 41 137 116 222 79 117 244 82 119 32 34 174 242 36 201 224 217 36 181 197 236 235 121 14 200 7 218 226 115 116 205 176 159 139 145 170 46 246 120 130 114 195 248 148 93 107 107 151 141 250 177 65 3 53 244 237 155 
246 156 241 182 182 239 141 149 111 194 95 76 37 74 155 180 131 243 18 208 78 205 250 124 87 156 243 93 139 229 234 200 121 53 21 143 223 146 126 235 221 154 86 205 41 8 91 15 183 213 167 196 235 229 149 217 221 242 175 252 166 173 237 1 
121 114 50 199 223 203 2 94 224 220 213 30 99 138 43 154 102 110 170 13 110 27 96 201 129 195 130 14 183 98 89 161 62 46 152 125 127 4 220 252 238 224 141 132 222 115 126 9 162 186 79 122 117 10 107 73 197 56 20 222 143 159 230 29 
152 102 5 186 169 72 62 82 86 142 188 81 94 133 58 83 132 214 173 141 248 157 233 46 219 222 247 152 43 90 243 176 195 169 110 38 47 199 59 62 164 60 59 72 143 28 175 163 130 62 188 77 220 229 105 40 182 184 79 152 9 100 211 113 
44 10 44 46 216 228 205 244 164 84 199 223 224 197 117 248 6 99 209 220 54 40 163 205 97 144 238 138 4 137 191 14 151 97 193 227 129 220 42 235 186 252 75 97 67 102 239 4 175 177 182 121 198 144 49 102 2 217 9 19 103 240 42 44 
38 214 6 170 227 132 202 81 30 93 68 99 231 65 230 200 103 210 0 229 233 37 178 26 223 148 133 27 37 81 68 233 72 115 29 176 73 50 105 97 156 180 69 236 134 214 89 210 77 59 177 85 187 166 114 77 85 158 129 149 217 123 169 165 
53 89 210 92 202 224 162 4 94 149 13 16 8 80 201 26 1 206 46 65 52 82 52 61 98 155 168 26 229 24 207 187 61 198 247 120 98 139 9 84 153 147 229 7 158 31 116 241 229 108 78 68 192 17 58 244 131 21 157 199 237 28 99 107 
236 59 255 243 158 231 27 243 219 239 234 122 164 234 64 238 59 119 185 163 7 210 157 79 74 30 183 166 113 69 94 115 195 176 111 113 189 125 197 154 160 214 213 136 114 140 146 95 104 195 116 6 153 191 43 134 105 236 74 251 202 131 129 210 
71 197 206 125 150 145 115 225 138 244 105 13 115 32 135 95 18 52 251 168 141 88 189 178 199 176 249 73 195 224 179 213 58 232 231 238 73 141 222 117 182 123 31 181 183 30 6 5 69 163 70 171 142 152 25 143 68 68 2 49 217 16 103 0 
149 199 126 173 170 236 173 185 169 58 189 33 218 79 99 210 29 157 93 159 175 174 73 120 86 201 180 214 212 82 223 120 5 18 253 222 42 92 199 17 33 106 105 185 152 29 122 235 226 192 22 248 62 128 109 17 97 133 227 17 199 70 241 188 
96 159 108 132 104 62 255 194 71 216 204 91 31 195 137 23 163 14 98 139 71 12 101 146 79 183 155 86 26 185 141 227 53 165 27 244 227 28 184 102 180 67 174 50 57 60 204 103 177 212 89 205 140 200 206 109 120 237 11 157 143 134 255 132 
166 12 116 204 96 26 231 113 178 201 148 8 106 202 240 108 234 209 134 25 109 72 173 133 166 53 49 228 73 162 42 209 43 155 102 13 119 191 3 250 207 30 209 159 254 201 46 173 172 249 229 99 136 71 214 145 200 188 234 207 124 171 150 206 
249 163 165 66 68 220 23 73 214 0 238 102 218 213 137 142 94 179 166 67 235 94 3 162 49 75 172 43 89 106 76 85 34 68 61 165 222 16 187 62 12 243 64 197 87 215 113 244 163 25 26 151 229 136 96 236 40 203 185 209 133 68 200 140 

Matrix B
20 176 3 235 103 182 128 44 154 8 204 138 90 56 153 81 1 229 69 94 202 71 184 208 210 7 204 153 195 74 97 196 59 20 199 86 230 170 69 158 168 96 224 44 240 4 84 243 148 216 116 249 61 44 140 225 183 205 96 119 199 125 151 28 
31 213 232 227 219 76 235 31 78 184 160 146 198 89 153 241 125 108 150 11 144 196 194 244 60 195 181 153 189 15 104 56 130 93 231 3 234 34 185 71 172 166 191 228 214 86 168 22 122 156 48 199 175 3 34 159 59 41 94 58 43 106 244 238 
105 107 205 230 214 74 154 194 159 191 172 149 1 254 152 56 208 237 219 17 199 250 8 123 150 121 98 67 244 201 20 80 70 33 253 146 11 249 232 224 147 138 170 235 104 134 215 7 29 68 124 92 28 15 168 182 214 194 216 243 171 91 53 123 
74 169 164 28 48 188 64 166 246 130 135 17 45 102 190 211 121 175 88 53 136 56 254 81 81 95 37 31 59 121 82 117 32 49 12 123 141 182 213 141 48 14 163 2 46 198 59 128 18 204 72 172 233 6 189 119 10 127 106 136 13 69 34 190 
123 5 124 159 0 140 148 165 163 130 60 66 78 156 77 33 62 173 154 240 207 130 86 129 171 73 71 40 32 225 252 66 51 41 122 60 8 245 6 1 28 146 91 143 54 232 126 48 58 91 108 211 40 230 123 215 171 20 156 213 61 130 123 164 
69 232 41 181 235 124 216 82 40 129 174 149 224 34 22 236 213 212 75 220 53 40 206 213 206 108 171 250 195 5 71 104 182 139 174 180 240 206 232 231 64 24 66 77 3 209 168 117 166 252 127 156 3 184 232 220 81 218 166 236 118 47 186 190 
151 16 24 138 186 2 135 156 154 208 248 126 229 252 88 70 172 49 33 22 76 244 177 246 81 183 82 239 180 96 211 12 227 68 93 234 218 229 7 154 231 84 128 128 15 49 201 197 103 183 14 9 153 252 112 140 120 214 210 156 104 178 217 87 
222 29 227 26 121 145 35 78 82 124 96 9 42 96 208 111 155 90 180 175 164 92 91 153 54 4 39 125 78 253 237 87 232 126 20 31 228 73 88 16 154 108 82 26 200 192 211 174 155 136 235 134 172 193 235 5 106 61 211 191 160 99 108 236 
121 101 246 243 13 55 89 58 199 178 129 32 37 112 40 47 111 168 228 252 91 23 76 230 34 223 96 23 77 26 240 181 103 105 124 162 89 47 167 136 255 11 255 63 22 5 177 171 180 156 185 72 136 198 121 3 43 221 108 207 121 225 101 10 
160 227 200 219 163 59 202 159 35 22 231 22 252 97 49 190 254 163 232 232 94 206 97 166 195 228 172 0 212 245 112 191 45 86 46 77 132 33 130 60 14 75 38 183 231 103 217 220 227 228 180 241 142 76 42 74 136 72 59 93 218 37 2 100 
72 36 122 1 4 182 66 188 47 97 69 146 101 136 198 113 249 107 183 6 168 72 67 206 60 127 0 57 229 59 161 226 218 211 57 244 34 139 236 220 74 55 60 242 86 91 96 75 13 238 11 93 223 169 79 206 51 254 133 198 140 201 174 224 
73 200 125 159 88 8 93 154 53 189 27 148 102 69 148 57 248 156 239 221 45 30 78 158 229 107 207 144 233 155 87 230 217 81 164 194 65 183 9 142 2 171 17 143 86 137 99 78 215 216 223 113 104 204 31 85 218 45 221 248 58 103 239 119 
83 173 107 224 233 81 2 193 214 153 53 126 239 92 4 161 150 100 210 39 182 167 173 49 168 76 239 7 39 49 116 86 224 37 182 134 177 230 57 69 26 205 106 19 150 182 111 229 116 253 77 78 58 239 44 82 112 176 189 88 95 87 132 232 
2 73 40 159 109 213 193 93 122 246 211 250 5 44 25 199 230 92 107 181 156 27 134 4 230 54 78 206 152 130 156 179 11 82 223 95 91 27 108 45 93 103 24 219 49 169 133 188 173 67 10 183 34 255 191 143 38 127 28 85 39 205 23 5 
220 82 77 19 188 132 155 194 3 185 144 61 91 169 11 223 43 40 191 14 149 28 43 95 202 233 16 45 165 59 60 241 6 27 133 17 162 18 134 239 29 162 185 32 56 25 126 220 203 149 129 145 16 120 78 87 219 169 210 153 212 172 175 2 
122 38 207 127 209 236 0 77 68 22 227 50 18 3 249 71 230 20 123 8 88 170 29 148 178 38 89 186 252 168 16 112 189 7 235 215 48 71 51 22 59 61 57 46 67 68 139 83 176 242 218 234 92 167 115 234 178 42 115 123 35 138 233 145 
33 213 38 6 42 132 252 157 195 0 198 5 166 230 57 171 31 161 35 74 83 21 254 183 228 131 227 221 218 169 103 160 189 133 127 193 198 94 97 122 191 75 1 31 235 118 5 126 68 54 77 197 127 74 184 102 182 34 80 17 158 15 12 38 
175 18 196 176 58 136 45 8 14 62 225 125 203 34 11 114 97 141 23 115 98 154 120 242 110 174 196 184 33 118 119 47 178 131 60 159 121 172 7 140 37 89 227 80 55 143 221 35 118 62 123 251 90 156 45 81 12 95 62 76 19 45 184 241 
181 33 216 55 121 53 46 2 63 111 130 36 91 10 74 137 247 221 54 209 56 57 5 139 165 132 62 110 63 122 21 208 12 104 195 215 172 74 222 209 27 5 190 109 112 141 89 195 202 255 136 242 75 8 197 167 99 141 6 209 5 208 130 26 
239 132 129 24 109 211 123 119 17 206 237 66 70 241 115 113 180 224 179 92 166 112 78 234 175 58 59 147 8 8 190 5 28 234 226 120 28 143 206 167 118 234 119 8 105 252 109 165 159 106 24 152 239 235 217 152 116 169 115 123 38 231 124 203 
152 62 70 98 171 182 217 13 93 243 104 232 209 118 124 17 18 142 37 146 183 72 209 214 148 55 13 19 141 99 214 142 63 240 21 230 151 226 79 138 128 152 135 248 52 85 223 194 211 31 136 101 232 9 155 19 122 135 136 11 30 140 214 64 
135 90 7 174 225 179 125 124 121 183 114 200 28 88 41 148 215 98 255 241 145 112 249 231 69 11 138 61 118 234 11 72 55 37 105 54 200 215 29 31 218 18 200 119 110 93 216 225 42 138 115 99 235 50 243 49 199 220 229 190 192 242 183 35 
100 153 130 186 240 17 3 29 141 21 89 142 143 38 17 251 158 252 215 241 25 87 112 13 120 110 252 167 157 110 32 44 159 9 221 239 252 250 161 51 253 16 138 104 219 84 148 252 182 234 158 46 189 9 67 215 34 243 48 243 155 228 88 244 
213 180 73 128 155 21 60 99 57 245 12 27 10 66 129 109 119 164 135 245 192 202 137 155 198 3 23 166 65 167 33 40 13 94 252 254 253 230 161 195 76 86 253 52 158 101 193 213 124 71 161 155 217 104 104 166 136 144 26 73 132 193 124 182 
132 220 231 109 196 125 50 137 216 153 231 180 69 71 195 105 81 137 77 58 195 192 223 163 109 126 66 178 53 129 101 138 14 242 78 182 170 173 158 40 244 99 12 63 49 137 78 2 94 228 142 213 140 108 234 89 23 70 10 126 7 226 212 117 
25 179 35 161 250 226 103 34 23 243 114 211 124 71 169 218 70 55 117 22 10 162 27 141 90 185 47 155 90 6 141 248 209 230 215 33 113 58 199 194 75 59 170 47 67 187 111 254 73 20 253 188 113 69 148 113 202 245 73 222 204 47 162 202 
81 35 177 47 166 122 184 180 86 175 50 119 139 162 67 133 42 13 76 249 233 126 42 125 107 237 235 182 203 23 128 217 159 9 160 6 214 214 88 9 162 102 210 242 212 38 203 33 205 85 229 214 34 152 11 142 27 128 30 167 162 179 205 218 
95 26 1 167 42 218 42 53 157 75 79 119 102 176 32 119 45 27 190 156 201 185 193 199 50 130 1 95 202 243 161 130 98 127 133 227 246 34 53 255 8 134 178 56 32 236 197 157 160 89 112 127 5 179 135 87 132 193 127 190 131 154 182 233 
23 148 234 59 149 67 207 186 95 74 42 86 124 183 245 183 228 67 74 102 77 36 155 124 249 17 248 158 176 80 70 216 153 170 199 39 33 181 95 117 65 7 192 200 231 195 85 31 237 115 170 176 205 174 59 12 199 55 47 158 5 175 113 68 
195 60 221 244 195 27 94 13 251 69 103 188 218 147 19 147 13 213 245 125 151 250 254 203 220 183 118 3 25 241 161 120 3 107 146 213 116 66 188 248 8 204 53 8 236 199 31 179 241 81 57 2 200 217 101 63 190 51 254 12 36 51 5 82 
230 20 168 190 38 155 8 15 160 236 222 162 83 204 104 8 103 55 223 199 23 18 162 234 64 127 167 223 164 67 193 37 127 163 242 145 11 86 91 162 181 217 90 126 109 10 93 213 50 175 112 223 224 252 252 137 104 157 5 191 32 226 148 233 
175 80 232 148 26 29 117 79 164 116 159 64 247 162 33 180 171 245 89 77 124 226 28 58 80 131 55 75 14 64 167 184 40 88 239 159 22 222 29 200 107 228 167 151 45 94 154 71 11 205 123 202 147 231 216 131 132 37 200 63 98 177 19 107 
65 197 230 133 118 137 26 130 22 161 162 31 227 250 29 12 42 38 100 39 156 175 145 79 104 231 252 96 50 18 156 153 13 47 25 47 190 71 68 45 94 208 103 23 41 72 31 248 114 77 41 23 150 70 247 1 218 50 228 8 2 74 26 101 
34 11 167 38 170 196 24 179 87 238 118 76 186 84 202 124 197 59 119 50 239 60 186 55 157 14 151 127 214 40 47 71 202 36 28 37 34 31 250 196 5 127 75 62 75 200 54 98 153 99 33 242 2 230 160 68 244 118 229 48 223 74 223 156 
192 49 217 38 85 181 230 241 223 145 147 72 68 249 246 46 129 172 81 98 23 172 95 6 212 72 15 21 87 243 136 145 203 120 121 19 12 104 242 108 81 124 2 181 13 207 129 115 97 2 209 118 72 63 108 166 249 8 41 167 208 63 138 222 
191 10 131 27 139 108 105 253 59 237 122 126 8 163 6 42 155 112 25 109 156 153 85 34 177 233 65 173 83 40 214 234 61 177 211 204 70 63 148 197 157 0 156 211 62 191 241 50 141 109 1 0 107 76 108 231 132 72 122 250 131 8 242 247 
130 213 70 76 241 32 50 212 122 227 230 171 189 169 20 54 104 38 233 49 68 140 97 206 192 19 241 86 240 21 232 212 32 11 201 178 245 199 236 247 244 171 103 232 58 78 155 14 188 41 245 171 232 239 255 194 41 247 165 149 130 243 22 205 
248 142 24 73 242 130 78 178 42 178 195 129 102 165 53 41 122 148 234 172 110 113 104 211 151 17 6 24 149 83 16 66 68 80 230 14 85 134 38 139 71 49 209 84 160 209 114 0 107 86 140 255 225 113 6 162 34 214 245 73 26 175 230 105 
94 191 208 164 92 50 170 141 74 226 222 89 199 227 50 174 87 237 246 193 103 4 104 13 236 244 163 182 190 218 113 199 131 90 56 139 31 202 247 219 245 55 105 189 174 152 111 111 107 213 208 142 164 4 17 12 57 39 151 12 85 170 42 67 
42 130 158 56 6 178 163 99 155 129 186 91 30 181 148 137 164 193 19 147 249 210 244 27 188 40 145 170 122 228 197 120 145 81 143 143 195 251 65 130 16 27 208 59 58 45 221 66 5 213 56 184 250 86 253 57 157 190 135 192 7 72 233 25 
186 191 71 174 186 219 74 178 154 29 17 196 236 52 165 24 204 35 212 254 60 163 128 1 139 58 29 46 138 146 244 171 213 64 160 160 124 183 103 219 99 134 140 128 255 254 43 88 7 85 159 124 10 36 194 213 74 69 75 73 146 215 109 238 
179 17 195 86 166 119 174 164 214 76 189 112 106 199 80 146 80 6 5 171 0 39 172 76 6 248 139 163 16 39 39 50 56 159 107 22 30 253 197 0 241 143 191 44 231 99 148 9 175 50 92 31 255 82 96 151 187 224 102 65 216 36 133 69 
80 222 63 167 223 77 188 63 249 64 150 241 150 30 208 81 26 234 155 42 106 120 96 73 142 237 185 86 123 127 228 227 190 119 153 78 166 245 11 229 32 226 207 72 106 143 112 233 144 236 45 66 254 210 125 70 142 155 111 119 29 150 142 153 
114 21 36 146 135 116 100 112 96 243 166 179 209 64 171 162 227 4 4 226 194 142 89 136 166 175 125 52 44 38 113 251 164 182 62 148 222 226 47 25 80 44 14 206 162 212 90 138 35 48 196 206 254 133 156 87 11 57 252 156 233 17 182 75 
74 182 253 233 194 156 139 216 48 101 88 188 18 84 11 114 93 187 101 149 45 45 144 231 111 232 180 123 147 30 189 4 213 185 177 89 111 107 225 1 94 25 169 247 210 225 162 175 46 136 196 26 60 68 188 91 102 203 236 201 183 124 53 177 
72 81 128 123 151 2 152 72 113 142 208 114 81 161 102 66 137 59 87 153 11 37 232 114 114 214 3 59 159 184 241 102 52 168 14 241 65 105 19 176 212 115 241 174 43 54 194 139 209 176 197 232 34 190 39 238 170 198 29 27 150 76 4 211 
71 112 96 11 73 70 128 186 22 214 246 67 42 45 208 89 216 179 233 111 37 196 231 34 148 161 40 232 226 52 154 47 25 228 33 156 176 59 112 17 30 20 131 233 245 72 92 58 171 210 5 22 76 19 165 65 2 239 171 214 90 198 254 239 
170 156 152 89 58 22 24 197 168 38 252 194 101 36 22 115 177 116 144 74 26 185 26 104 202 49 243 16 248 231 88 231 116 76 239 77 253 63 131 6 104 168 2 107 219 254 250 255 124 211 134 83 13 190 93 150 180 191 117 27 115 46 134 182 
